{
	name                   :"Account Blacklist Implementation",
	description            :"Provides a default implementation for the account blacklist.",
	version                :"0.0.1",
	artifact               :"https://repository.lugdunon.net/mod/net.lugdunon.state.account.defaults.blacklist.jar",
	blacklistImplementation:"net.lugdunon.state.account.defaults.blacklist.DefaultAccountBlacklist",
	credits    :[
		{
		    type:"Code",
		    attributions:
		    [
		        {
		            name:"Chris Gray",
		            url:"chris@lugdunon.net"
		        }
		    ]
		}
	]
}